%YAML 1.1
%TAG !u! tag:unity3d.com,2011:
--- !u!1 &3998073948774481406
GameObject:
  m_ObjectHideFlags: 0
  m_CorrespondingSourceObject: {fileID: 0}
  m_PrefabInstance: {fileID: 0}
  m_PrefabAsset: {fileID: 0}
  serializedVersion: 6
  m_Component:
  - component: {fileID: 7248120339328840295}
  - component: {fileID: 3839698810470862627}
  - component: {fileID: 3288271337872469765}
  m_Layer: 5
  m_Name: Window
  m_TagString: Untagged
  m_Icon: {fileID: 0}
  m_NavMeshLayer: 0
  m_StaticEditorFlags: 0
  m_IsActive: 1
--- !u!224 &7248120339328840295
RectTransform:
  m_ObjectHideFlags: 0
  m_CorrespondingSourceObject: {fileID: 0}
  m_PrefabInstance: {fileID: 0}
  m_PrefabAsset: {fileID: 0}
  m_GameObject: {fileID: 3998073948774481406}
  m_LocalRotation: {x: 0, y: 0, z: 0, w: 1}
  m_LocalPosition: {x: 0, y: 0, z: 0}
  m_LocalScale: {x: 1, y: 1, z: 1}
  m_Children:
  - {fileID: 7246384878575752644}
  - {fileID: 5320714636366075246}
  - {fileID: 2374805760455698720}
  m_Father: {fileID: 163217314054704655}
  m_RootOrder: 0
  m_LocalEulerAnglesHint: {x: 0, y: 0, z: 0}
  m_AnchorMin: {x: 0, y: 0}
  m_AnchorMax: {x: 1, y: 1}
  m_AnchoredPosition: {x: 0, y: 0}
  m_SizeDelta: {x: 0, y: 0}
  m_Pivot: {x: 0.5, y: 0.5}
--- !u!222 &3839698810470862627
CanvasRenderer:
  m_ObjectHideFlags: 0
  m_CorrespondingSourceObject: {fileID: 0}
  m_PrefabInstance: {fileID: 0}
  m_PrefabAsset: {fileID: 0}
  m_GameObject: {fileID: 3998073948774481406}
  m_CullTransparentMesh: 0
--- !u!114 &3288271337872469765
MonoBehaviour:
  m_ObjectHideFlags: 0
  m_CorrespondingSourceObject: {fileID: 0}
  m_PrefabInstance: {fileID: 0}
  m_PrefabAsset: {fileID: 0}
  m_GameObject: {fileID: 3998073948774481406}
  m_Enabled: 1
  m_EditorHideFlags: 0
  m_Script: {fileID: 11500000, guid: 1344c3c82d62a2a41a3576d8abb8e3ea, type: 3}
  m_Name: 
  m_EditorClassIdentifier: 
  m_Material: {fileID: 0}
  m_Color: {r: 0, g: 1, b: 0.22719026, a: 1}
  m_RaycastTarget: 1
  m_RaycastPadding: {x: 0, y: 0, z: 0, w: 0}
  m_Maskable: 1
  m_OnCullStateChanged:
    m_PersistentCalls:
      m_Calls: []
  m_Texture: {fileID: 0}
  m_UVRect:
    serializedVersion: 2
    x: 0
    y: 0
    width: 1
    height: 1
--- !u!1 &8654666729997262440
GameObject:
  m_ObjectHideFlags: 0
  m_CorrespondingSourceObject: {fileID: 0}
  m_PrefabInstance: {fileID: 0}
  m_PrefabAsset: {fileID: 0}
  serializedVersion: 6
  m_Component:
  - component: {fileID: 163217314054704655}
  - component: {fileID: 7908098220233893167}
  - component: {fileID: 3298191578018113669}
  - component: {fileID: 1509895203691511772}
  - component: {fileID: 2441909482313257797}
  m_Layer: 5
  m_Name: FullscreenWindow1
  m_TagString: Untagged
  m_Icon: {fileID: 0}
  m_NavMeshLayer: 0
  m_StaticEditorFlags: 0
  m_IsActive: 1
--- !u!224 &163217314054704655
RectTransform:
  m_ObjectHideFlags: 0
  m_CorrespondingSourceObject: {fileID: 0}
  m_PrefabInstance: {fileID: 0}
  m_PrefabAsset: {fileID: 0}
  m_GameObject: {fileID: 8654666729997262440}
  m_LocalRotation: {x: 0, y: 0, z: 0, w: 1}
  m_LocalPosition: {x: 0, y: 0, z: 0}
  m_LocalScale: {x: 0, y: 0, z: 0}
  m_Children:
  - {fileID: 7248120339328840295}
  m_Father: {fileID: 0}
  m_RootOrder: 0
  m_LocalEulerAnglesHint: {x: 0, y: 0, z: 0}
  m_AnchorMin: {x: 0, y: 0}
  m_AnchorMax: {x: 0, y: 0}
  m_AnchoredPosition: {x: 0, y: 0}
  m_SizeDelta: {x: 0, y: 0}
  m_Pivot: {x: 0, y: 0}
--- !u!223 &7908098220233893167
Canvas:
  m_ObjectHideFlags: 0
  m_CorrespondingSourceObject: {fileID: 0}
  m_PrefabInstance: {fileID: 0}
  m_PrefabAsset: {fileID: 0}
  m_GameObject: {fileID: 8654666729997262440}
  m_Enabled: 1
  serializedVersion: 3
  m_RenderMode: 0
  m_Camera: {fileID: 0}
  m_PlaneDistance: 100
  m_PixelPerfect: 0
  m_ReceivesEvents: 1
  m_OverrideSorting: 0
  m_OverridePixelPerfect: 0
  m_SortingBucketNormalizedSize: 0
  m_AdditionalShaderChannelsFlag: 0
  m_SortingLayerID: 0
  m_SortingOrder: 0
  m_TargetDisplay: 0
--- !u!114 &3298191578018113669
MonoBehaviour:
  m_ObjectHideFlags: 0
  m_CorrespondingSourceObject: {fileID: 0}
  m_PrefabInstance: {fileID: 0}
  m_PrefabAsset: {fileID: 0}
  m_GameObject: {fileID: 8654666729997262440}
  m_Enabled: 1
  m_EditorHideFlags: 0
  m_Script: {fileID: 11500000, guid: 0cd44c1031e13a943bb63640046fad76, type: 3}
  m_Name: 
  m_EditorClassIdentifier: 
  m_UiScaleMode: 1
  m_ReferencePixelsPerUnit: 100
  m_ScaleFactor: 1
  m_ReferenceResolution: {x: 2048, y: 1536}
  m_ScreenMatchMode: 0
  m_MatchWidthOrHeight: 1
  m_PhysicalUnit: 3
  m_FallbackScreenDPI: 96
  m_DefaultSpriteDPI: 96
  m_DynamicPixelsPerUnit: 1
  m_PresetInfoIsWorld: 0
--- !u!114 &1509895203691511772
MonoBehaviour:
  m_ObjectHideFlags: 0
  m_CorrespondingSourceObject: {fileID: 0}
  m_PrefabInstance: {fileID: 0}
  m_PrefabAsset: {fileID: 0}
  m_GameObject: {fileID: 8654666729997262440}
  m_Enabled: 1
  m_EditorHideFlags: 0
  m_Script: {fileID: 11500000, guid: dc42784cf147c0c48a680349fa168899, type: 3}
  m_Name: 
  m_EditorClassIdentifier: 
  m_IgnoreReversedGraphics: 1
  m_BlockingObjects: 0
  m_BlockingMask:
    serializedVersion: 2
    m_Bits: 4294967295
--- !u!114 &2441909482313257797
MonoBehaviour:
  m_ObjectHideFlags: 0
  m_CorrespondingSourceObject: {fileID: 0}
  m_PrefabInstance: {fileID: 0}
  m_PrefabAsset: {fileID: 0}
  m_GameObject: {fileID: 8654666729997262440}
  m_Enabled: 1
  m_EditorHideFlags: 0
  m_Script: {fileID: 11500000, guid: 6f359efbbe1c4e8f935558233af582b9, type: 3}
  m_Name: 
  m_EditorClassIdentifier: 
  _windowGroup: fullscreen
  _isUnique: 0
  _overlap: 0
  _window: {fileID: 7248120339328840295}
  _closeButton: {fileID: 3020728945720246315}
  _ctrLabel: {fileID: 5036582731154677506}
--- !u!1001 &1863542536378895752
PrefabInstance:
  m_ObjectHideFlags: 0
  serializedVersion: 2
  m_Modification:
    m_TransformParent: {fileID: 7248120339328840295}
    m_Modifications:
    - target: {fileID: 3170446547931149249, guid: 63bb4093239a17843a71520688533fac,
        type: 3}
      propertyPath: m_Name
      value: CloseButton
      objectReference: {fileID: 0}
    - target: {fileID: 4119002906692330664, guid: 63bb4093239a17843a71520688533fac,
        type: 3}
      propertyPath: m_Pivot.x
      value: 1
      objectReference: {fileID: 0}
    - target: {fileID: 4119002906692330664, guid: 63bb4093239a17843a71520688533fac,
        type: 3}
      propertyPath: m_Pivot.y
      value: 1
      objectReference: {fileID: 0}
    - target: {fileID: 4119002906692330664, guid: 63bb4093239a17843a71520688533fac,
        type: 3}
      propertyPath: m_RootOrder
      value: 2
      objectReference: {fileID: 0}
    - target: {fileID: 4119002906692330664, guid: 63bb4093239a17843a71520688533fac,
        type: 3}
      propertyPath: m_AnchorMax.x
      value: 1
      objectReference: {fileID: 0}
    - target: {fileID: 4119002906692330664, guid: 63bb4093239a17843a71520688533fac,
        type: 3}
      propertyPath: m_AnchorMax.y
      value: 1
      objectReference: {fileID: 0}
    - target: {fileID: 4119002906692330664, guid: 63bb4093239a17843a71520688533fac,
        type: 3}
      propertyPath: m_AnchorMin.x
      value: 1
      objectReference: {fileID: 0}
    - target: {fileID: 4119002906692330664, guid: 63bb4093239a17843a71520688533fac,
        type: 3}
      propertyPath: m_AnchorMin.y
      value: 1
      objectReference: {fileID: 0}
    - target: {fileID: 4119002906692330664, guid: 63bb4093239a17843a71520688533fac,
        type: 3}
      propertyPath: m_SizeDelta.x
      value: 100
      objectReference: {fileID: 0}
    - target: {fileID: 4119002906692330664, guid: 63bb4093239a17843a71520688533fac,
        type: 3}
      propertyPath: m_SizeDelta.y
      value: 100
      objectReference: {fileID: 0}
    - target: {fileID: 4119002906692330664, guid: 63bb4093239a17843a71520688533fac,
        type: 3}
      propertyPath: m_LocalPosition.x
      value: 0
      objectReference: {fileID: 0}
    - target: {fileID: 4119002906692330664, guid: 63bb4093239a17843a71520688533fac,
        type: 3}
      propertyPath: m_LocalPosition.y
      value: 0
      objectReference: {fileID: 0}
    - target: {fileID: 4119002906692330664, guid: 63bb4093239a17843a71520688533fac,
        type: 3}
      propertyPath: m_LocalPosition.z
      value: 0
      objectReference: {fileID: 0}
    - target: {fileID: 4119002906692330664, guid: 63bb4093239a17843a71520688533fac,
        type: 3}
      propertyPath: m_LocalRotation.w
      value: 1
      objectReference: {fileID: 0}
    - target: {fileID: 4119002906692330664, guid: 63bb4093239a17843a71520688533fac,
        type: 3}
      propertyPath: m_LocalRotation.x
      value: 0
      objectReference: {fileID: 0}
    - target: {fileID: 4119002906692330664, guid: 63bb4093239a17843a71520688533fac,
        type: 3}
      propertyPath: m_LocalRotation.y
      value: 0
      objectReference: {fileID: 0}
    - target: {fileID: 4119002906692330664, guid: 63bb4093239a17843a71520688533fac,
        type: 3}
      propertyPath: m_LocalRotation.z
      value: 0
      objectReference: {fileID: 0}
    - target: {fileID: 4119002906692330664, guid: 63bb4093239a17843a71520688533fac,
        type: 3}
      propertyPath: m_AnchoredPosition.x
      value: -50
      objectReference: {fileID: 0}
    - target: {fileID: 4119002906692330664, guid: 63bb4093239a17843a71520688533fac,
        type: 3}
      propertyPath: m_AnchoredPosition.y
      value: -50
      objectReference: {fileID: 0}
    - target: {fileID: 4119002906692330664, guid: 63bb4093239a17843a71520688533fac,
        type: 3}
      propertyPath: m_LocalEulerAnglesHint.x
      value: 0
      objectReference: {fileID: 0}
    - target: {fileID: 4119002906692330664, guid: 63bb4093239a17843a71520688533fac,
        type: 3}
      propertyPath: m_LocalEulerAnglesHint.y
      value: 0
      objectReference: {fileID: 0}
    - target: {fileID: 4119002906692330664, guid: 63bb4093239a17843a71520688533fac,
        type: 3}
      propertyPath: m_LocalEulerAnglesHint.z
      value: 0
      objectReference: {fileID: 0}
    m_RemovedComponents: []
  m_SourcePrefab: {fileID: 100100000, guid: 63bb4093239a17843a71520688533fac, type: 3}
--- !u!224 &2374805760455698720 stripped
RectTransform:
  m_CorrespondingSourceObject: {fileID: 4119002906692330664, guid: 63bb4093239a17843a71520688533fac,
    type: 3}
  m_PrefabInstance: {fileID: 1863542536378895752}
  m_PrefabAsset: {fileID: 0}
--- !u!114 &3020728945720246315 stripped
MonoBehaviour:
  m_CorrespondingSourceObject: {fileID: 3474363184433106339, guid: 63bb4093239a17843a71520688533fac,
    type: 3}
  m_PrefabInstance: {fileID: 1863542536378895752}
  m_PrefabAsset: {fileID: 0}
  m_GameObject: {fileID: 0}
  m_Enabled: 1
  m_EditorHideFlags: 0
  m_Script: {fileID: 11500000, guid: 4e29b1a8efbd4b44bb3f3716e73f07ff, type: 3}
  m_Name: 
  m_EditorClassIdentifier: 
--- !u!1001 &4621549801746065320
PrefabInstance:
  m_ObjectHideFlags: 0
  serializedVersion: 2
  m_Modification:
    m_TransformParent: {fileID: 7248120339328840295}
    m_Modifications:
    - target: {fileID: 463977654905328691, guid: f2eea77e8d5088248a60e563c7a40106,
        type: 3}
      propertyPath: m_AnchorMax.y
      value: 0
      objectReference: {fileID: 0}
    - target: {fileID: 463977654905328691, guid: f2eea77e8d5088248a60e563c7a40106,
        type: 3}
      propertyPath: m_AnchorMin.y
      value: 0
      objectReference: {fileID: 0}
    - target: {fileID: 463977654905328691, guid: f2eea77e8d5088248a60e563c7a40106,
        type: 3}
      propertyPath: m_AnchoredPosition.x
      value: 0
      objectReference: {fileID: 0}
    - target: {fileID: 463977654905328691, guid: f2eea77e8d5088248a60e563c7a40106,
        type: 3}
      propertyPath: m_AnchoredPosition.y
      value: 0
      objectReference: {fileID: 0}
    - target: {fileID: 541565054954318233, guid: f2eea77e8d5088248a60e563c7a40106,
        type: 3}
      propertyPath: m_AnchorMax.y
      value: 0
      objectReference: {fileID: 0}
    - target: {fileID: 541565054954318233, guid: f2eea77e8d5088248a60e563c7a40106,
        type: 3}
      propertyPath: m_AnchorMin.y
      value: 0
      objectReference: {fileID: 0}
    - target: {fileID: 541565054954318233, guid: f2eea77e8d5088248a60e563c7a40106,
        type: 3}
      propertyPath: m_AnchoredPosition.x
      value: 0
      objectReference: {fileID: 0}
    - target: {fileID: 541565054954318233, guid: f2eea77e8d5088248a60e563c7a40106,
        type: 3}
      propertyPath: m_AnchoredPosition.y
      value: 0
      objectReference: {fileID: 0}
    - target: {fileID: 717746667164250822, guid: f2eea77e8d5088248a60e563c7a40106,
        type: 3}
      propertyPath: m_Pivot.x
      value: 0.5
      objectReference: {fileID: 0}
    - target: {fileID: 717746667164250822, guid: f2eea77e8d5088248a60e563c7a40106,
        type: 3}
      propertyPath: m_Pivot.y
      value: 0.5
      objectReference: {fileID: 0}
    - target: {fileID: 717746667164250822, guid: f2eea77e8d5088248a60e563c7a40106,
        type: 3}
      propertyPath: m_RootOrder
      value: 1
      objectReference: {fileID: 0}
    - target: {fileID: 717746667164250822, guid: f2eea77e8d5088248a60e563c7a40106,
        type: 3}
      propertyPath: m_AnchorMax.x
      value: 1
      objectReference: {fileID: 0}
    - target: {fileID: 717746667164250822, guid: f2eea77e8d5088248a60e563c7a40106,
        type: 3}
      propertyPath: m_AnchorMax.y
      value: 1
      objectReference: {fileID: 0}
    - target: {fileID: 717746667164250822, guid: f2eea77e8d5088248a60e563c7a40106,
        type: 3}
      propertyPath: m_AnchorMin.x
      value: 0
      objectReference: {fileID: 0}
    - target: {fileID: 717746667164250822, guid: f2eea77e8d5088248a60e563c7a40106,
        type: 3}
      propertyPath: m_AnchorMin.y
      value: 0
      objectReference: {fileID: 0}
    - target: {fileID: 717746667164250822, guid: f2eea77e8d5088248a60e563c7a40106,
        type: 3}
      propertyPath: m_SizeDelta.x
      value: 0
      objectReference: {fileID: 0}
    - target: {fileID: 717746667164250822, guid: f2eea77e8d5088248a60e563c7a40106,
        type: 3}
      propertyPath: m_SizeDelta.y
      value: 0
      objectReference: {fileID: 0}
    - target: {fileID: 717746667164250822, guid: f2eea77e8d5088248a60e563c7a40106,
        type: 3}
      propertyPath: m_LocalPosition.x
      value: 0
      objectReference: {fileID: 0}
    - target: {fileID: 717746667164250822, guid: f2eea77e8d5088248a60e563c7a40106,
        type: 3}
      propertyPath: m_LocalPosition.y
      value: 0
      objectReference: {fileID: 0}
    - target: {fileID: 717746667164250822, guid: f2eea77e8d5088248a60e563c7a40106,
        type: 3}
      propertyPath: m_LocalPosition.z
      value: 0
      objectReference: {fileID: 0}
    - target: {fileID: 717746667164250822, guid: f2eea77e8d5088248a60e563c7a40106,
        type: 3}
      propertyPath: m_LocalRotation.w
      value: 1
      objectReference: {fileID: 0}
    - target: {fileID: 717746667164250822, guid: f2eea77e8d5088248a60e563c7a40106,
        type: 3}
      propertyPath: m_LocalRotation.x
      value: 0
      objectReference: {fileID: 0}
    - target: {fileID: 717746667164250822, guid: f2eea77e8d5088248a60e563c7a40106,
        type: 3}
      propertyPath: m_LocalRotation.y
      value: 0
      objectReference: {fileID: 0}
    - target: {fileID: 717746667164250822, guid: f2eea77e8d5088248a60e563c7a40106,
        type: 3}
      propertyPath: m_LocalRotation.z
      value: 0
      objectReference: {fileID: 0}
    - target: {fileID: 717746667164250822, guid: f2eea77e8d5088248a60e563c7a40106,
        type: 3}
      propertyPath: m_AnchoredPosition.x
      value: 0
      objectReference: {fileID: 0}
    - target: {fileID: 717746667164250822, guid: f2eea77e8d5088248a60e563c7a40106,
        type: 3}
      propertyPath: m_AnchoredPosition.y
      value: 0
      objectReference: {fileID: 0}
    - target: {fileID: 717746667164250822, guid: f2eea77e8d5088248a60e563c7a40106,
        type: 3}
      propertyPath: m_LocalEulerAnglesHint.x
      value: 0
      objectReference: {fileID: 0}
    - target: {fileID: 717746667164250822, guid: f2eea77e8d5088248a60e563c7a40106,
        type: 3}
      propertyPath: m_LocalEulerAnglesHint.y
      value: 0
      objectReference: {fileID: 0}
    - target: {fileID: 717746667164250822, guid: f2eea77e8d5088248a60e563c7a40106,
        type: 3}
      propertyPath: m_LocalEulerAnglesHint.z
      value: 0
      objectReference: {fileID: 0}
    - target: {fileID: 851077001313762692, guid: f2eea77e8d5088248a60e563c7a40106,
        type: 3}
      propertyPath: m_Name
      value: Dashboard
      objectReference: {fileID: 0}
    - target: {fileID: 1290216048898032731, guid: f2eea77e8d5088248a60e563c7a40106,
        type: 3}
      propertyPath: m_AnchorMax.y
      value: 0
      objectReference: {fileID: 0}
    - target: {fileID: 1290216048898032731, guid: f2eea77e8d5088248a60e563c7a40106,
        type: 3}
      propertyPath: m_AnchorMin.y
      value: 0
      objectReference: {fileID: 0}
    - target: {fileID: 1290216048898032731, guid: f2eea77e8d5088248a60e563c7a40106,
        type: 3}
      propertyPath: m_AnchoredPosition.x
      value: 0
      objectReference: {fileID: 0}
    - target: {fileID: 1290216048898032731, guid: f2eea77e8d5088248a60e563c7a40106,
        type: 3}
      propertyPath: m_AnchoredPosition.y
      value: 0
      objectReference: {fileID: 0}
    - target: {fileID: 1402325477491097816, guid: f2eea77e8d5088248a60e563c7a40106,
        type: 3}
      propertyPath: m_AnchorMax.y
      value: 0
      objectReference: {fileID: 0}
    - target: {fileID: 1402325477491097816, guid: f2eea77e8d5088248a60e563c7a40106,
        type: 3}
      propertyPath: m_AnchorMin.y
      value: 0
      objectReference: {fileID: 0}
    - target: {fileID: 1402325477491097816, guid: f2eea77e8d5088248a60e563c7a40106,
        type: 3}
      propertyPath: m_AnchoredPosition.x
      value: 0
      objectReference: {fileID: 0}
    - target: {fileID: 1402325477491097816, guid: f2eea77e8d5088248a60e563c7a40106,
        type: 3}
      propertyPath: m_AnchoredPosition.y
      value: 0
      objectReference: {fileID: 0}
    - target: {fileID: 1406880782504847170, guid: f2eea77e8d5088248a60e563c7a40106,
        type: 3}
      propertyPath: m_AnchorMax.y
      value: 0
      objectReference: {fileID: 0}
    - target: {fileID: 1406880782504847170, guid: f2eea77e8d5088248a60e563c7a40106,
        type: 3}
      propertyPath: m_AnchorMin.y
      value: 0
      objectReference: {fileID: 0}
    - target: {fileID: 1406880782504847170, guid: f2eea77e8d5088248a60e563c7a40106,
        type: 3}
      propertyPath: m_AnchoredPosition.x
      value: 0
      objectReference: {fileID: 0}
    - target: {fileID: 1406880782504847170, guid: f2eea77e8d5088248a60e563c7a40106,
        type: 3}
      propertyPath: m_AnchoredPosition.y
      value: 0
      objectReference: {fileID: 0}
    - target: {fileID: 2601184195965026899, guid: f2eea77e8d5088248a60e563c7a40106,
        type: 3}
      propertyPath: m_AnchorMax.y
      value: 0
      objectReference: {fileID: 0}
    - target: {fileID: 2601184195965026899, guid: f2eea77e8d5088248a60e563c7a40106,
        type: 3}
      propertyPath: m_AnchorMin.y
      value: 0
      objectReference: {fileID: 0}
    - target: {fileID: 2601184195965026899, guid: f2eea77e8d5088248a60e563c7a40106,
        type: 3}
      propertyPath: m_AnchoredPosition.x
      value: 0
      objectReference: {fileID: 0}
    - target: {fileID: 2601184195965026899, guid: f2eea77e8d5088248a60e563c7a40106,
        type: 3}
      propertyPath: m_AnchoredPosition.y
      value: 0
      objectReference: {fileID: 0}
    - target: {fileID: 2631930190505379477, guid: f2eea77e8d5088248a60e563c7a40106,
        type: 3}
      propertyPath: m_AnchorMax.y
      value: 0
      objectReference: {fileID: 0}
    - target: {fileID: 2631930190505379477, guid: f2eea77e8d5088248a60e563c7a40106,
        type: 3}
      propertyPath: m_AnchorMin.y
      value: 0
      objectReference: {fileID: 0}
    - target: {fileID: 2631930190505379477, guid: f2eea77e8d5088248a60e563c7a40106,
        type: 3}
      propertyPath: m_AnchoredPosition.x
      value: 0
      objectReference: {fileID: 0}
    - target: {fileID: 2631930190505379477, guid: f2eea77e8d5088248a60e563c7a40106,
        type: 3}
      propertyPath: m_AnchoredPosition.y
      value: 0
      objectReference: {fileID: 0}
    - target: {fileID: 2732880727242964985, guid: f2eea77e8d5088248a60e563c7a40106,
        type: 3}
      propertyPath: m_AnchorMax.y
      value: 0
      objectReference: {fileID: 0}
    - target: {fileID: 2732880727242964985, guid: f2eea77e8d5088248a60e563c7a40106,
        type: 3}
      propertyPath: m_AnchorMin.y
      value: 0
      objectReference: {fileID: 0}
    - target: {fileID: 2732880727242964985, guid: f2eea77e8d5088248a60e563c7a40106,
        type: 3}
      propertyPath: m_AnchoredPosition.x
      value: 0
      objectReference: {fileID: 0}
    - target: {fileID: 2732880727242964985, guid: f2eea77e8d5088248a60e563c7a40106,
        type: 3}
      propertyPath: m_AnchoredPosition.y
      value: 0
      objectReference: {fileID: 0}
    - target: {fileID: 2961177451084793788, guid: f2eea77e8d5088248a60e563c7a40106,
        type: 3}
      propertyPath: m_AnchorMax.y
      value: 0
      objectReference: {fileID: 0}
    - target: {fileID: 2961177451084793788, guid: f2eea77e8d5088248a60e563c7a40106,
        type: 3}
      propertyPath: m_AnchorMin.y
      value: 0
      objectReference: {fileID: 0}
    - target: {fileID: 2961177451084793788, guid: f2eea77e8d5088248a60e563c7a40106,
        type: 3}
      propertyPath: m_AnchoredPosition.x
      value: 0
      objectReference: {fileID: 0}
    - target: {fileID: 2961177451084793788, guid: f2eea77e8d5088248a60e563c7a40106,
        type: 3}
      propertyPath: m_AnchoredPosition.y
      value: 0
      objectReference: {fileID: 0}
    - target: {fileID: 3019670397455851558, guid: f2eea77e8d5088248a60e563c7a40106,
        type: 3}
      propertyPath: m_AnchorMax.y
      value: 0
      objectReference: {fileID: 0}
    - target: {fileID: 3019670397455851558, guid: f2eea77e8d5088248a60e563c7a40106,
        type: 3}
      propertyPath: m_AnchorMin.y
      value: 0
      objectReference: {fileID: 0}
    - target: {fileID: 3019670397455851558, guid: f2eea77e8d5088248a60e563c7a40106,
        type: 3}
      propertyPath: m_AnchoredPosition.x
      value: 0
      objectReference: {fileID: 0}
    - target: {fileID: 3019670397455851558, guid: f2eea77e8d5088248a60e563c7a40106,
        type: 3}
      propertyPath: m_AnchoredPosition.y
      value: 0
      objectReference: {fileID: 0}
    - target: {fileID: 3412680599742056532, guid: f2eea77e8d5088248a60e563c7a40106,
        type: 3}
      propertyPath: m_AnchorMax.y
      value: 0
      objectReference: {fileID: 0}
    - target: {fileID: 3412680599742056532, guid: f2eea77e8d5088248a60e563c7a40106,
        type: 3}
      propertyPath: m_AnchorMin.y
      value: 0
      objectReference: {fileID: 0}
    - target: {fileID: 3412680599742056532, guid: f2eea77e8d5088248a60e563c7a40106,
        type: 3}
      propertyPath: m_AnchoredPosition.x
      value: 0
      objectReference: {fileID: 0}
    - target: {fileID: 3412680599742056532, guid: f2eea77e8d5088248a60e563c7a40106,
        type: 3}
      propertyPath: m_AnchoredPosition.y
      value: 0
      objectReference: {fileID: 0}
    - target: {fileID: 3435252442091892686, guid: f2eea77e8d5088248a60e563c7a40106,
        type: 3}
      propertyPath: m_AnchorMax.y
      value: 0
      objectReference: {fileID: 0}
    - target: {fileID: 3435252442091892686, guid: f2eea77e8d5088248a60e563c7a40106,
        type: 3}
      propertyPath: m_AnchorMin.y
      value: 0
      objectReference: {fileID: 0}
    - target: {fileID: 3435252442091892686, guid: f2eea77e8d5088248a60e563c7a40106,
        type: 3}
      propertyPath: m_AnchoredPosition.x
      value: 0
      objectReference: {fileID: 0}
    - target: {fileID: 3435252442091892686, guid: f2eea77e8d5088248a60e563c7a40106,
        type: 3}
      propertyPath: m_AnchoredPosition.y
      value: 0
      objectReference: {fileID: 0}
    - target: {fileID: 3466499771027180680, guid: f2eea77e8d5088248a60e563c7a40106,
        type: 3}
      propertyPath: m_AnchorMax.y
      value: 0
      objectReference: {fileID: 0}
    - target: {fileID: 3466499771027180680, guid: f2eea77e8d5088248a60e563c7a40106,
        type: 3}
      propertyPath: m_AnchorMin.y
      value: 0
      objectReference: {fileID: 0}
    - target: {fileID: 3466499771027180680, guid: f2eea77e8d5088248a60e563c7a40106,
        type: 3}
      propertyPath: m_AnchoredPosition.x
      value: 0
      objectReference: {fileID: 0}
    - target: {fileID: 3466499771027180680, guid: f2eea77e8d5088248a60e563c7a40106,
        type: 3}
      propertyPath: m_AnchoredPosition.y
      value: 0
      objectReference: {fileID: 0}
    - target: {fileID: 3524992657226754834, guid: f2eea77e8d5088248a60e563c7a40106,
        type: 3}
      propertyPath: m_AnchorMax.y
      value: 0
      objectReference: {fileID: 0}
    - target: {fileID: 3524992657226754834, guid: f2eea77e8d5088248a60e563c7a40106,
        type: 3}
      propertyPath: m_AnchorMin.y
      value: 0
      objectReference: {fileID: 0}
    - target: {fileID: 3524992657226754834, guid: f2eea77e8d5088248a60e563c7a40106,
        type: 3}
      propertyPath: m_AnchoredPosition.x
      value: 0
      objectReference: {fileID: 0}
    - target: {fileID: 3524992657226754834, guid: f2eea77e8d5088248a60e563c7a40106,
        type: 3}
      propertyPath: m_AnchoredPosition.y
      value: 0
      objectReference: {fileID: 0}
    - target: {fileID: 4227219008906181413, guid: f2eea77e8d5088248a60e563c7a40106,
        type: 3}
      propertyPath: m_AnchorMax.y
      value: 0
      objectReference: {fileID: 0}
    - target: {fileID: 4227219008906181413, guid: f2eea77e8d5088248a60e563c7a40106,
        type: 3}
      propertyPath: m_AnchorMin.y
      value: 0
      objectReference: {fileID: 0}
    - target: {fileID: 4227219008906181413, guid: f2eea77e8d5088248a60e563c7a40106,
        type: 3}
      propertyPath: m_AnchoredPosition.x
      value: 0
      objectReference: {fileID: 0}
    - target: {fileID: 4227219008906181413, guid: f2eea77e8d5088248a60e563c7a40106,
        type: 3}
      propertyPath: m_AnchoredPosition.y
      value: 0
      objectReference: {fileID: 0}
    - target: {fileID: 4277996329439413903, guid: f2eea77e8d5088248a60e563c7a40106,
        type: 3}
      propertyPath: m_AnchorMax.y
      value: 0
      objectReference: {fileID: 0}
    - target: {fileID: 4277996329439413903, guid: f2eea77e8d5088248a60e563c7a40106,
        type: 3}
      propertyPath: m_AnchorMin.y
      value: 0
      objectReference: {fileID: 0}
    - target: {fileID: 4277996329439413903, guid: f2eea77e8d5088248a60e563c7a40106,
        type: 3}
      propertyPath: m_AnchoredPosition.x
      value: 0
      objectReference: {fileID: 0}
    - target: {fileID: 4277996329439413903, guid: f2eea77e8d5088248a60e563c7a40106,
        type: 3}
      propertyPath: m_AnchoredPosition.y
      value: 0
      objectReference: {fileID: 0}
    - target: {fileID: 4331998419901076311, guid: f2eea77e8d5088248a60e563c7a40106,
        type: 3}
      propertyPath: m_AnchorMax.y
      value: 0
      objectReference: {fileID: 0}
    - target: {fileID: 4331998419901076311, guid: f2eea77e8d5088248a60e563c7a40106,
        type: 3}
      propertyPath: m_AnchorMin.y
      value: 0
      objectReference: {fileID: 0}
    - target: {fileID: 4331998419901076311, guid: f2eea77e8d5088248a60e563c7a40106,
        type: 3}
      propertyPath: m_AnchoredPosition.x
      value: 0
      objectReference: {fileID: 0}
    - target: {fileID: 4331998419901076311, guid: f2eea77e8d5088248a60e563c7a40106,
        type: 3}
      propertyPath: m_AnchoredPosition.y
      value: 0
      objectReference: {fileID: 0}
    - target: {fileID: 4461446723235557117, guid: f2eea77e8d5088248a60e563c7a40106,
        type: 3}
      propertyPath: m_AnchorMax.y
      value: 0
      objectReference: {fileID: 0}
    - target: {fileID: 4461446723235557117, guid: f2eea77e8d5088248a60e563c7a40106,
        type: 3}
      propertyPath: m_AnchorMin.y
      value: 0
      objectReference: {fileID: 0}
    - target: {fileID: 4461446723235557117, guid: f2eea77e8d5088248a60e563c7a40106,
        type: 3}
      propertyPath: m_AnchoredPosition.x
      value: 0
      objectReference: {fileID: 0}
    - target: {fileID: 4461446723235557117, guid: f2eea77e8d5088248a60e563c7a40106,
        type: 3}
      propertyPath: m_AnchoredPosition.y
      value: 0
      objectReference: {fileID: 0}
    - target: {fileID: 4975894184734031379, guid: f2eea77e8d5088248a60e563c7a40106,
        type: 3}
      propertyPath: m_AnchorMax.y
      value: 0
      objectReference: {fileID: 0}
    - target: {fileID: 4975894184734031379, guid: f2eea77e8d5088248a60e563c7a40106,
        type: 3}
      propertyPath: m_AnchorMin.y
      value: 0
      objectReference: {fileID: 0}
    - target: {fileID: 4975894184734031379, guid: f2eea77e8d5088248a60e563c7a40106,
        type: 3}
      propertyPath: m_AnchoredPosition.x
      value: 0
      objectReference: {fileID: 0}
    - target: {fileID: 4975894184734031379, guid: f2eea77e8d5088248a60e563c7a40106,
        type: 3}
      propertyPath: m_AnchoredPosition.y
      value: 0
      objectReference: {fileID: 0}
    - target: {fileID: 7354261067014525215, guid: f2eea77e8d5088248a60e563c7a40106,
        type: 3}
      propertyPath: m_AnchorMax.y
      value: 0
      objectReference: {fileID: 0}
    - target: {fileID: 7354261067014525215, guid: f2eea77e8d5088248a60e563c7a40106,
        type: 3}
      propertyPath: m_AnchorMin.y
      value: 0
      objectReference: {fileID: 0}
    - target: {fileID: 7354261067014525215, guid: f2eea77e8d5088248a60e563c7a40106,
        type: 3}
      propertyPath: m_AnchoredPosition.x
      value: 0
      objectReference: {fileID: 0}
    - target: {fileID: 7354261067014525215, guid: f2eea77e8d5088248a60e563c7a40106,
        type: 3}
      propertyPath: m_AnchoredPosition.y
      value: 0
      objectReference: {fileID: 0}
    - target: {fileID: 7390592629912294873, guid: f2eea77e8d5088248a60e563c7a40106,
        type: 3}
      propertyPath: m_AnchorMax.y
      value: 0
      objectReference: {fileID: 0}
    - target: {fileID: 7390592629912294873, guid: f2eea77e8d5088248a60e563c7a40106,
        type: 3}
      propertyPath: m_AnchorMin.y
      value: 0
      objectReference: {fileID: 0}
    - target: {fileID: 7390592629912294873, guid: f2eea77e8d5088248a60e563c7a40106,
        type: 3}
      propertyPath: m_AnchoredPosition.x
      value: 0
      objectReference: {fileID: 0}
    - target: {fileID: 7390592629912294873, guid: f2eea77e8d5088248a60e563c7a40106,
        type: 3}
      propertyPath: m_AnchoredPosition.y
      value: 0
      objectReference: {fileID: 0}
    - target: {fileID: 7492849369757658293, guid: f2eea77e8d5088248a60e563c7a40106,
        type: 3}
      propertyPath: m_AnchorMax.y
      value: 0
      objectReference: {fileID: 0}
    - target: {fileID: 7492849369757658293, guid: f2eea77e8d5088248a60e563c7a40106,
        type: 3}
      propertyPath: m_AnchorMin.y
      value: 0
      objectReference: {fileID: 0}
    - target: {fileID: 7492849369757658293, guid: f2eea77e8d5088248a60e563c7a40106,
        type: 3}
      propertyPath: m_AnchoredPosition.x
      value: 0
      objectReference: {fileID: 0}
    - target: {fileID: 7492849369757658293, guid: f2eea77e8d5088248a60e563c7a40106,
        type: 3}
      propertyPath: m_AnchoredPosition.y
      value: 0
      objectReference: {fileID: 0}
    - target: {fileID: 7790432447703692695, guid: f2eea77e8d5088248a60e563c7a40106,
        type: 3}
      propertyPath: _windowGroup
      value: group3
      objectReference: {fileID: 0}
    - target: {fileID: 8218415572865884100, guid: f2eea77e8d5088248a60e563c7a40106,
        type: 3}
      propertyPath: m_AnchorMax.y
      value: 0
      objectReference: {fileID: 0}
    - target: {fileID: 8218415572865884100, guid: f2eea77e8d5088248a60e563c7a40106,
        type: 3}
      propertyPath: m_AnchorMin.y
      value: 0
      objectReference: {fileID: 0}
    - target: {fileID: 8218415572865884100, guid: f2eea77e8d5088248a60e563c7a40106,
        type: 3}
      propertyPath: m_AnchoredPosition.x
      value: 0
      objectReference: {fileID: 0}
    - target: {fileID: 8218415572865884100, guid: f2eea77e8d5088248a60e563c7a40106,
        type: 3}
      propertyPath: m_AnchoredPosition.y
      value: 0
      objectReference: {fileID: 0}
    - target: {fileID: 8285950834402244702, guid: f2eea77e8d5088248a60e563c7a40106,
        type: 3}
      propertyPath: m_AnchorMax.y
      value: 0
      objectReference: {fileID: 0}
    - target: {fileID: 8285950834402244702, guid: f2eea77e8d5088248a60e563c7a40106,
        type: 3}
      propertyPath: m_AnchorMin.y
      value: 0
      objectReference: {fileID: 0}
    - target: {fileID: 8285950834402244702, guid: f2eea77e8d5088248a60e563c7a40106,
        type: 3}
      propertyPath: m_AnchoredPosition.x
      value: 0
      objectReference: {fileID: 0}
    - target: {fileID: 8285950834402244702, guid: f2eea77e8d5088248a60e563c7a40106,
        type: 3}
      propertyPath: m_AnchoredPosition.y
      value: 0
      objectReference: {fileID: 0}
    - target: {fileID: 8779649926561304837, guid: f2eea77e8d5088248a60e563c7a40106,
        type: 3}
      propertyPath: m_AnchorMax.y
      value: 0
      objectReference: {fileID: 0}
    - target: {fileID: 8779649926561304837, guid: f2eea77e8d5088248a60e563c7a40106,
        type: 3}
      propertyPath: m_AnchorMin.y
      value: 0
      objectReference: {fileID: 0}
    - target: {fileID: 8779649926561304837, guid: f2eea77e8d5088248a60e563c7a40106,
        type: 3}
      propertyPath: m_AnchoredPosition.x
      value: 0
      objectReference: {fileID: 0}
    - target: {fileID: 8779649926561304837, guid: f2eea77e8d5088248a60e563c7a40106,
        type: 3}
      propertyPath: m_AnchoredPosition.y
      value: 0
      objectReference: {fileID: 0}
    - target: {fileID: 9179415493245204855, guid: f2eea77e8d5088248a60e563c7a40106,
        type: 3}
      propertyPath: m_AnchorMax.y
      value: 0
      objectReference: {fileID: 0}
    - target: {fileID: 9179415493245204855, guid: f2eea77e8d5088248a60e563c7a40106,
        type: 3}
      propertyPath: m_AnchorMin.y
      value: 0
      objectReference: {fileID: 0}
    - target: {fileID: 9179415493245204855, guid: f2eea77e8d5088248a60e563c7a40106,
        type: 3}
      propertyPath: m_AnchoredPosition.x
      value: 0
      objectReference: {fileID: 0}
    - target: {fileID: 9179415493245204855, guid: f2eea77e8d5088248a60e563c7a40106,
        type: 3}
      propertyPath: m_AnchoredPosition.y
      value: 0
      objectReference: {fileID: 0}
    m_RemovedComponents: []
  m_SourcePrefab: {fileID: 100100000, guid: f2eea77e8d5088248a60e563c7a40106, type: 3}
--- !u!224 &5320714636366075246 stripped
RectTransform:
  m_CorrespondingSourceObject: {fileID: 717746667164250822, guid: f2eea77e8d5088248a60e563c7a40106,
    type: 3}
  m_PrefabInstance: {fileID: 4621549801746065320}
  m_PrefabAsset: {fileID: 0}
--- !u!1001 &5892538593003080359
PrefabInstance:
  m_ObjectHideFlags: 0
  serializedVersion: 2
  m_Modification:
    m_TransformParent: {fileID: 7248120339328840295}
    m_Modifications:
    - target: {fileID: 366305932801571429, guid: df63dcc740c78b249b5d8576e4c77b9c,
        type: 3}
      propertyPath: m_Name
      value: Counter
      objectReference: {fileID: 0}
    - target: {fileID: 3843492454988750691, guid: df63dcc740c78b249b5d8576e4c77b9c,
        type: 3}
      propertyPath: m_Pivot.x
      value: 1
      objectReference: {fileID: 0}
    - target: {fileID: 3843492454988750691, guid: df63dcc740c78b249b5d8576e4c77b9c,
        type: 3}
      propertyPath: m_Pivot.y
      value: 0
      objectReference: {fileID: 0}
    - target: {fileID: 3843492454988750691, guid: df63dcc740c78b249b5d8576e4c77b9c,
        type: 3}
      propertyPath: m_RootOrder
      value: 0
      objectReference: {fileID: 0}
    - target: {fileID: 3843492454988750691, guid: df63dcc740c78b249b5d8576e4c77b9c,
        type: 3}
      propertyPath: m_AnchorMax.x
      value: 1
      objectReference: {fileID: 0}
    - target: {fileID: 3843492454988750691, guid: df63dcc740c78b249b5d8576e4c77b9c,
        type: 3}
      propertyPath: m_AnchorMax.y
      value: 0
      objectReference: {fileID: 0}
    - target: {fileID: 3843492454988750691, guid: df63dcc740c78b249b5d8576e4c77b9c,
        type: 3}
      propertyPath: m_AnchorMin.x
      value: 1
      objectReference: {fileID: 0}
    - target: {fileID: 3843492454988750691, guid: df63dcc740c78b249b5d8576e4c77b9c,
        type: 3}
      propertyPath: m_AnchorMin.y
      value: 0
      objectReference: {fileID: 0}
    - target: {fileID: 3843492454988750691, guid: df63dcc740c78b249b5d8576e4c77b9c,
        type: 3}
      propertyPath: m_SizeDelta.x
      value: 300
      objectReference: {fileID: 0}
    - target: {fileID: 3843492454988750691, guid: df63dcc740c78b249b5d8576e4c77b9c,
        type: 3}
      propertyPath: m_SizeDelta.y
      value: 100
      objectReference: {fileID: 0}
    - target: {fileID: 3843492454988750691, guid: df63dcc740c78b249b5d8576e4c77b9c,
        type: 3}
      propertyPath: m_LocalPosition.x
      value: 0
      objectReference: {fileID: 0}
    - target: {fileID: 3843492454988750691, guid: df63dcc740c78b249b5d8576e4c77b9c,
        type: 3}
      propertyPath: m_LocalPosition.y
      value: 0
      objectReference: {fileID: 0}
    - target: {fileID: 3843492454988750691, guid: df63dcc740c78b249b5d8576e4c77b9c,
        type: 3}
      propertyPath: m_LocalPosition.z
      value: 0
      objectReference: {fileID: 0}
    - target: {fileID: 3843492454988750691, guid: df63dcc740c78b249b5d8576e4c77b9c,
        type: 3}
      propertyPath: m_LocalRotation.w
      value: 1
      objectReference: {fileID: 0}
    - target: {fileID: 3843492454988750691, guid: df63dcc740c78b249b5d8576e4c77b9c,
        type: 3}
      propertyPath: m_LocalRotation.x
      value: -0
      objectReference: {fileID: 0}
    - target: {fileID: 3843492454988750691, guid: df63dcc740c78b249b5d8576e4c77b9c,
        type: 3}
      propertyPath: m_LocalRotation.y
      value: -0
      objectReference: {fileID: 0}
    - target: {fileID: 3843492454988750691, guid: df63dcc740c78b249b5d8576e4c77b9c,
        type: 3}
      propertyPath: m_LocalRotation.z
      value: -0
      objectReference: {fileID: 0}
    - target: {fileID: 3843492454988750691, guid: df63dcc740c78b249b5d8576e4c77b9c,
        type: 3}
      propertyPath: m_AnchoredPosition.x
      value: -50
      objectReference: {fileID: 0}
    - target: {fileID: 3843492454988750691, guid: df63dcc740c78b249b5d8576e4c77b9c,
        type: 3}
      propertyPath: m_AnchoredPosition.y
      value: 50
      objectReference: {fileID: 0}
    - target: {fileID: 3843492454988750691, guid: df63dcc740c78b249b5d8576e4c77b9c,
        type: 3}
      propertyPath: m_LocalEulerAnglesHint.x
      value: 0
      objectReference: {fileID: 0}
    - target: {fileID: 3843492454988750691, guid: df63dcc740c78b249b5d8576e4c77b9c,
        type: 3}
      propertyPath: m_LocalEulerAnglesHint.y
      value: 0
      objectReference: {fileID: 0}
    - target: {fileID: 3843492454988750691, guid: df63dcc740c78b249b5d8576e4c77b9c,
        type: 3}
      propertyPath: m_LocalEulerAnglesHint.z
      value: 0
      objectReference: {fileID: 0}
    m_RemovedComponents: []
  m_SourcePrefab: {fileID: 100100000, guid: df63dcc740c78b249b5d8576e4c77b9c, type: 3}
--- !u!224 &7246384878575752644 stripped
RectTransform:
  m_CorrespondingSourceObject: {fileID: 3843492454988750691, guid: df63dcc740c78b249b5d8576e4c77b9c,
    type: 3}
  m_PrefabInstance: {fileID: 5892538593003080359}
  m_PrefabAsset: {fileID: 0}
--- !u!114 &5036582731154677506 stripped
MonoBehaviour:
  m_CorrespondingSourceObject: {fileID: 1451014423848015269, guid: df63dcc740c78b249b5d8576e4c77b9c,
    type: 3}
  m_PrefabInstance: {fileID: 5892538593003080359}
  m_PrefabAsset: {fileID: 0}
  m_GameObject: {fileID: 0}
  m_Enabled: 1
  m_EditorHideFlags: 0
  m_Script: {fileID: 11500000, guid: 5f7201a12d95ffc409449d95f23cf332, type: 3}
  m_Name: 
  m_EditorClassIdentifier: 
