%YAML 1.1
%TAG !u! tag:unity3d.com,2011:
--- !u!114 &11400000
MonoBehaviour:
  m_ObjectHideFlags: 0
  m_CorrespondingSourceObject: {fileID: 0}
  m_PrefabInstance: {fileID: 0}
  m_PrefabAsset: {fileID: 0}
  m_GameObject: {fileID: 0}
  m_Enabled: 1
  m_EditorHideFlags: 0
  m_Script: {fileID: 11500000, guid: f28fe913cc3645b18654454172d85783, type: 3}
  m_Name: ScreenLockerSettings
  m_EditorClassIdentifier: 
  _screenLockers:
  - {fileID: 9178327160458712654, guid: 056c35a24ca3769489243c76e3be1e0b, type: 3}
  - {fileID: 6380864974324621553, guid: 62151189f31276441b0fa29e541ae441, type: 3}
  - {fileID: 6688310712348794223, guid: 37a9a378078c27e498f9d75a84414680, type: 3}
